…
```
## Parsed with column specification:
## cols(
##   steps = col_integer(),
##   date = col_date(format = ""),
##   interval = col_integer()
## )
```

```r
activity
```

```
## # A tibble: 17,568 x 3
##    steps       date interval
##    <int>     <date>    <int>
##  1    NA 2012-10-01        0
##  2    NA 2012-10-01        5
##  3    NA 2012-10-01       10
##  4    NA 2012-10-01       15
##  5    NA 2012-10-01       20
##  6    NA 2012-10-01       25
##  7    NA 2012-10-01       30
##  8    NA 2012-10-01       35
##  9    NA 2012-10-01       40
## 10    NA 2012-10-01       45
## # ... with 17,558 more rows
```
…
